{
    "type": "application",
    "source-directories": [
        "src/elm"
    ],
    "elm-version": "0.19.1",
    "dependencies": {
        "direct": {
            "NoRedInk/elm-json-decode-pipeline": "1.0.0",
            "cmditch/elm-ethereum": "5.0.0",
            "coinop-logan/phace": "3.0.1",
            "elm/browser": "1.0.2",
            "elm/core": "1.0.4",
            "elm/html": "1.0.0",
            "elm/json": "1.1.3",
            "elm/random": "1.0.0",
            "elm/svg": "1.0.1",
            "elm/url": "1.0.0",
            "elm-community/list-extra": "8.3.1",
            "mdgriffith/elm-ui": "1.1.8",
            "rtfeldman/elm-hex": "1.0.0"
        },
        "indirect": {
            "Chadtech/elm-bool-extra": "2.4.2",
            "TSFoster/elm-tuple-extra": "2.0.0",
            "cmditch/elm-bigint": "2.0.1",
            "elm/bytes": "1.0.8",
            "elm/file": "1.0.5",
            "elm/http": "2.0.0",
            "elm/parser": "1.1.0",
            "elm/regex": "1.0.0",
            "elm/time": "1.0.0",
            "elm/virtual-dom": "1.0.2",
            "elm-community/json-extra": "4.3.0",
            "elm-community/maybe-extra": "5.2.0",
            "elm-community/result-extra": "2.4.0",
            "elm-community/string-extra": "4.0.1",
            "prozacchiwawa/elm-keccak": "2.0.0",
            "rtfeldman/elm-iso8601-date-strings": "1.1.4",
            "zwilias/elm-utf-tools": "2.0.1"
        }
    },
    "test-dependencies": {
        "direct": {},
        "indirect": {}
    }
}
