<?xml version="1.0" standalone="no"?>
<!DOCTYPE svg PUBLIC "-//W3C//DTD SVG 20010904//EN"
 "http://www.w3.org/TR/2001/REC-SVG-20010904/DTD/svg10.dtd">
<svg version="1.0" xmlns="http://www.w3.org/2000/svg"
 width="1577.000000pt" height="1577.000000pt" viewBox="0 0 1577.000000 1577.000000"
 preserveAspectRatio="xMidYMid meet">

<g transform="translate(0.000000,1577.000000) scale(0.100000,-0.100000)"
fill="rgba(41, 41, 41, 1)" stroke="none">
<path d="M2250 15754 c-591 -57 -1088 -282 -1499 -679 -385 -371 -617 -822
-718 -1392 -16 -92 -18 -380 -21 -4503 -2 -3168 0 -4442 8 -4535 41 -479 225
-936 527 -1310 92 -114 265 -288 368 -370 283 -227 644 -401 991 -479 239 -54
277 -56 1351 -56 l993 0 0 605 0 605 -957 0 c-1050 0 -1057 0 -1235 60 -371
125 -660 414 -776 780 -61 194 -57 -147 -57 4615 0 4719 -3 4422 52 4599 133
425 473 731 923 833 69 16 241 17 2056 20 l1982 3 56 -20 c30 -12 83 -42 117
-66 l61 -45 146 35 c343 82 403 88 886 95 l419 6 -199 191 c-651 625 -1006
876 -1392 982 l-97 27 -1975 1 c-1086 1 -1991 -1 -2010 -2z"/>
<path d="M7000 13925 c-449 -55 -880 -236 -1235 -519 -96 -77 -284 -264 -362
-361 -157 -195 -313 -468 -398 -699 -46 -126 -99 -330 -122 -476 -17 -110 -18
-325 -18 -4900 0 -4594 1 -4789 18 -4895 64 -384 191 -707 398 -1010 354 -522
908 -890 1524 -1014 240 -48 82 -46 3510 -46 3068 0 3236 1 3350 18 547 83
1009 313 1389 691 377 376 610 844 693 1391 17 114 18 291 18 3610 0 3790 4
3537 -57 3730 -94 299 -313 617 -750 1089 -223 242 -2481 2485 -2699 2681
-455 409 -760 606 -1078 693 l-96 27 -1990 1 c-1564 2 -2012 -1 -2095 -11z
m4183 -1229 c79 -38 176 -131 216 -205 114 -214 130 -411 130 -1636 1 -704 0
-695 63 -823 39 -79 146 -195 222 -241 31 -18 87 -45 124 -60 l67 -26 905 -6
c963 -7 1009 -9 1204 -59 227 -58 369 -186 423 -381 17 -61 18 -248 18 -3509
0 -3288 -1 -3449 -18 -3535 -52 -257 -163 -470 -338 -644 -174 -175 -387 -286
-644 -338 -86 -17 -237 -18 -3240 -18 -2930 0 -3156 1 -3240 17 -437 83 -791
382 -933 790 -17 47 -39 119 -49 160 -17 69 -18 299 -21 4723 -2 3305 0 4678
8 4747 53 472 378 871 829 1017 74 25 137 38 251 55 14 2 912 3 1995 2 l1970
-1 58 -29z"/>
<path d="M11695 8416 c-270 -46 -496 -140 -701 -294 -81 -61 -183 -162 -769
-760 l-140 -143 55 25 c140 63 414 55 652 -20 88 -28 191 -75 221 -102 17 -15
23 -12 90 59 331 345 350 362 482 427 130 64 182 76 330 76 116 0 137 -3 197
-26 194 -74 343 -226 405 -413 32 -98 36 -240 9 -350 -22 -90 -91 -234 -150
-309 -25 -32 -274 -284 -553 -559 -280 -275 -618 -609 -753 -742 -261 -257
-327 -309 -465 -360 -260 -99 -510 -60 -700 107 -103 91 -157 113 -275 113
-84 -1 -102 -4 -155 -30 -76 -37 -149 -109 -183 -183 -21 -44 -27 -76 -30
-142 -6 -144 44 -238 190 -357 188 -154 406 -254 649 -299 127 -24 370 -24
499 -1 255 46 509 161 705 320 74 60 1535 1519 1614 1612 347 408 471 949 321
1407 -35 107 -136 299 -206 391 -213 283 -492 464 -829 538 -118 26 -395 34
-510 15z"/>
<path d="M10070 6704 c-328 -39 -603 -157 -851 -364 -87 -73 -1397 -1362
-1492 -1469 -187 -208 -318 -468 -378 -751 -29 -139 -32 -382 -6 -512 93 -462
425 -859 863 -1032 486 -192 1088 -80 1509 283 105 90 751 757 705 729 -107
-68 -367 -73 -613 -12 -99 25 -277 100 -291 123 -4 6 -11 11 -15 11 -4 0 -59
-57 -122 -126 -137 -151 -221 -219 -343 -279 -158 -78 -293 -100 -437 -71
-244 49 -443 241 -505 486 -22 85 -14 237 16 335 32 101 102 230 162 301 64
73 1353 1345 1423 1404 136 113 333 188 498 190 135 1 297 -61 404 -154 79
-69 115 -91 187 -111 172 -50 362 29 444 183 86 161 48 341 -101 477 -185 169
-419 286 -671 334 -102 20 -314 34 -386 25z"/>
</g>
</svg>
